C51 COMPILER V9.60.0.0   TIME2COUNT                                                        01/06/2021 14:16:32 PAGE 1   


C51 COMPILER V9.60.0.0, COMPILATION OF MODULE TIME2COUNT
OBJECT MODULE PLACED IN .\Output\time2count.obj
COMPILER INVOKED BY: C:\Keil_v5\C51\BIN\C51.EXE time2count.c OPTIMIZE(8,SPEED) BROWSE INCDIR(..\..\anti-collisionnew) DE
                    -BUG OBJECTEXTEND TABS(2) OBJECT(.\Output\time2count.obj)

line level    source

   1          #include "time3.h"
*** WARNING C318 IN LINE 1 OF time2count.c: can't open file 'time3.h'
   2          int ctime ;
   3          int ctime_1s ;
   4          
   5          void Timer6Init(void)   //100微秒@11.0592MHz
   6          {
   7   1      //  AUXR |= 0x04;   //定时器时钟1T模式
   8   1      //  T2L = 0xAE;   //设置定时初值
   9   1      //  T2H = 0xFB;   //设置定时初值
  10   1        T4T3M |= 0x02;    //定时器时钟1T模式
*** ERROR C202 IN LINE 10 OF time2count.c: 'T4T3M': undefined identifier
  11   1        T3L = 0xAE;   //设置定时初值
*** ERROR C202 IN LINE 11 OF time2count.c: 'T3L': undefined identifier
  12   1        T3H = 0xFB;   //设置定时初值
*** ERROR C202 IN LINE 12 OF time2count.c: 'T3H': undefined identifier
  13   1        //AUXR |= 0x10;   //定时器2开始计时
  14   1        T4T3M |= 0x08;    //定时器3开始计时
*** ERROR C202 IN LINE 14 OF time2count.c: 'T4T3M': undefined identifier
  15   1        IE2 |= 0x20;     //使能定时器3中断
*** ERROR C202 IN LINE 15 OF time2count.c: 'IE2': undefined identifier
  16   1      }
  17          
  18          void TM3_Isr() interrupt 19
  19          {
  20   1          ctime++;                             
  21   1         // AUXINTIF &= ~T2IF;                          //清中断标志
  22   1        AUXINTIF &= ~T3IF;                          //清中断标志
*** ERROR C202 IN LINE 22 OF time2count.c: 'AUXINTIF': undefined identifier
  23   1      }

C51 COMPILATION COMPLETE.  1 WARNING(S),  6 ERROR(S)
