

tinit  //初始化串口 GPIO等

//


tmc262中添加
////总共发送五个字节 第一个是地址  后面四个是指令
//void TMC_SPIWriteInt(uint8_t reg, int32_t spi_send_data)
//增加方向  
#define	DIR	  P06
#define	STEP  P07


source.h中
添加spi使用到的参数
spi_del_flag 需要处理spi反馈数据置位1  处理结束清零

spi控制寄存器cs片选线

485发送需要延时

无人机开关机操作
uart4


if( P27 == 1){
	if(current_current < 0.1){  //充电完成
		P34 = 0;
		P27 = 0;    //停止充电
		current_state  = 05;
		// printf("charge complete\r\n");
							 }
}

if(Dial_switch == 1){  //判断拨码开关是否打开
						
P25拨码打开						
						
						}

开关机指令合并  
飞机开机
非机关机


添加adc检测动态参考
uint16_t __vref

电量优化

更改充电完成标志位
if( P34 == 0){
		if( current_voltage < 50 ){  //检测到电池
			current_state_bits  &= ~0x10; //充电未完成
		 }
							
		}


vref 屏蔽测试和滤波修正

稳压电源测试

添加超时断电功能
查询地址的时候返回时间限制到预留位

//2022/1/17添加
//电量百分比     //除了关机不充电的时候，其他都强制标定
1 关机充电    
2 关机不充电
3 开机充电        
4 开机不充电    Power_on_nocharging_voltage


自动充电功能//
百分比必须小于95

充电自启动添加延时，缺少放电二极管导致电压检测出现异常、


定时关闭
//充电时间超时
//							if((Charging_time_limit > 0 )&&(charging_time >= Charging_time_limit)){
//								P27 = 0;   //P27
//								P34 = 0;  												
//							}
测试不同的板子是否相差0.24     

测试飞机开机的时候电压相差多少

开机到关机      			  上升0.2      
飞机开机的电压会降低多少    0.2左右  

模式1 关机不充电    1.001偏差较大 0.02 0.10 0.07 0.04 0.04 0.03    1.002相对稳定一些  相差0.01 0.04  0.05  0.04

模式1 开机不充电    板子和万用表比较 1.001浮动偏差到了0.1V  0.05  0.02  0.03 0.01 0.05x    1.002 相差0.12  1.002相差0.08 0.05 0.04 0.03

开机充电  板子和万用表比较 1.001偏差到了0.06V 0.05 0.07 0.06 0.10 0.12 0.1 0.06   1.002 相差0.12  0.08 0.05 0.04  0.1 0.05 0.1

关机充电   板子和万用表比较 1.001偏差到了0.1V   0.08  0.06 0.08 0.09      1.002相差0.08 0.07   0.08 0.12

以开机不充电为标准
开机充电-0.1
关机不充电-0.2
关机充电-0.3
测试先把滤波去掉直接看百分比

后面主要测试四种情况下，电压检测值和万用表的差值
飞机开机不充电的曲线
飞机四种状态和标定的状态电压检测差

电阻23去掉

1怎样保证板子电压数据准确一些


22/02/22
添加 是否上报数据选择功能
添加 上报数据周期功能 

拨码开关检测电量百分比是否充电的部分，那个电量是否需要后期重新标定
get_channel_power(5);   //adc动态标定							
Convert_external_voltage();
if(current_power <= 95 && current_voltage > 50 ){  //检测到电池

等下要测开机充电10 --- 53

